key: gamestats.distance_traveled -1060010143321761050 v1 Revised
Distance Traveled

key: gamestats.glims_earned 3770460961121916247 v1 Revised
Glims Earned

key: gamestats.glims_spent 927361434218131395 v1 Revised
Glims Spent

key: gamestats.time_played -8099406510287110264 v1 Revised
Time Played

