key: regions.00_deathportal.name -9127953374995225734 v1 Revised
Things Betwixt

key: regions.a01_furogawa.name 8392006909420039334 v1 Revised
Furogawa Region

key: regions.b02_hummingberg.name 3851900925905344292 v1 Revised
Hummingberg Region

key: regions.c03_oxbury.name 7185763278527554789 v1 Revised
Oxbury Region

key: regions.d04_crowsend.name 8373489203888918211 v1 Revised
Crow's End Region

